…
vb_exp <- boysvb %>%
  filter(Sport == "Volleyball") %>%
  select(Year,State,Sport,`Boys Participation`) %>%
  
# see totals from 2002/2003 to 2018/2019 by state
  group_by(State) %>%
  summarise(total = sum(`Boys Participation`)) %>%
  
# then order from largest to smallest
  arrange(desc(total))

vb_exp

## # A tibble: 51 x 2
##    State  total
##    <chr>  <dbl>
##  1 CA    272489
##  2 IL    111864
##  3 NY     67626
##  4 PA     61506
##  5 NJ     46390
##  6 OH     39265
##  7 MA     37827
##  8 FL     36386
##  9 AZ     26889
## 10 WI     24750
## # ... with 41 more rows
…
